%!PS-Adobe-3.0 EPSF-3.0
%%Creator: graphviz version 2.36.0 (20140111.2315)
%%Title: callgraph
%%Pages: 1
%%BoundingBox: 36 36 1018 296
%%EndComments
save
%%BeginProlog
/DotDict 200 dict def
DotDict begin

/setupLatin1 {
mark
/EncodingVector 256 array def
 EncodingVector 0

ISOLatin1Encoding 0 255 getinterval putinterval
EncodingVector 45 /hyphen put

% Set up ISO Latin 1 character encoding
/starnetISO {
        dup dup findfont dup length dict begin
        { 1 index /FID ne { def }{ pop pop } ifelse
        } forall
        /Encoding EncodingVector def
        currentdict end definefont
} def
/Times-Roman starnetISO def
/Times-Italic starnetISO def
/Times-Bold starnetISO def
/Times-BoldItalic starnetISO def
/Helvetica starnetISO def
/Helvetica-Oblique starnetISO def
/Helvetica-Bold starnetISO def
/Helvetica-BoldOblique starnetISO def
/Courier starnetISO def
/Courier-Oblique starnetISO def
/Courier-Bold starnetISO def
/Courier-BoldOblique starnetISO def
cleartomark
} bind def

%%BeginResource: procset graphviz 0 0
/coord-font-family /Times-Roman def
/default-font-family /Times-Roman def
/coordfont coord-font-family findfont 8 scalefont def

/InvScaleFactor 1.0 def
/set_scale {
       dup 1 exch div /InvScaleFactor exch def
       scale
} bind def

% styles
/solid { [] 0 setdash } bind def
/dashed { [9 InvScaleFactor mul dup ] 0 setdash } bind def
/dotted { [1 InvScaleFactor mul 6 InvScaleFactor mul] 0 setdash } bind def
/invis {/fill {newpath} def /stroke {newpath} def /show {pop newpath} def} bind def
/bold { 2 setlinewidth } bind def
/filled { } bind def
/unfilled { } bind def
/rounded { } bind def
/diagonals { } bind def
/tapered { } bind def

% hooks for setting color 
/nodecolor { sethsbcolor } bind def
/edgecolor { sethsbcolor } bind def
/graphcolor { sethsbcolor } bind def
/nopcolor {pop pop pop} bind def

/beginpage {	% i j npages
	/npages exch def
	/j exch def
	/i exch def
	/str 10 string def
	npages 1 gt {
		gsave
			coordfont setfont
			0 0 moveto
			(\() show i str cvs show (,) show j str cvs show (\)) show
		grestore
	} if
} bind def

/set_font {
	findfont exch
	scalefont setfont
} def

% draw text fitted to its expected width
/alignedtext {			% width text
	/text exch def
	/width exch def
	gsave
		width 0 gt {
			[] 0 setdash
			text stringwidth pop width exch sub text length div 0 text ashow
		} if
	grestore
} def

/boxprim {				% xcorner ycorner xsize ysize
		4 2 roll
		moveto
		2 copy
		exch 0 rlineto
		0 exch rlineto
		pop neg 0 rlineto
		closepath
} bind def

/ellipse_path {
	/ry exch def
	/rx exch def
	/y exch def
	/x exch def
	matrix currentmatrix
	newpath
	x y translate
	rx ry scale
	0 0 1 0 360 arc
	setmatrix
} bind def

/endpage { showpage } bind def
/showpage { } def

/layercolorseq
	[	% layer color sequence - darkest to lightest
		[0 0 0]
		[.2 .8 .8]
		[.4 .8 .8]
		[.6 .8 .8]
		[.8 .8 .8]
	]
def

/layerlen layercolorseq length def

/setlayer {/maxlayer exch def /curlayer exch def
	layercolorseq curlayer 1 sub layerlen mod get
	aload pop sethsbcolor
	/nodecolor {nopcolor} def
	/edgecolor {nopcolor} def
	/graphcolor {nopcolor} def
} bind def

/onlayer { curlayer ne {invis} if } def

/onlayers {
	/myupper exch def
	/mylower exch def
	curlayer mylower lt
	curlayer myupper gt
	or
	{invis} if
} def

/curlayer 0 def

%%EndResource
%%EndProlog
%%BeginSetup
14 default-font-family set_font
1 setmiterlimit
% /arrowlength 10 def
% /arrowwidth 5 def

% make sure pdfmark is harmless for PS-interpreters other than Distiller
/pdfmark where {pop} {userdict /pdfmark /cleartomark load put} ifelse
% make '<<' and '>>' safe on PS Level 1 devices
/languagelevel where {pop languagelevel}{1} ifelse
2 lt {
    userdict (<<) cvn ([) cvn load put
    userdict (>>) cvn ([) cvn load put
} if

%%EndSetup
setupLatin1
%%Page: 1 1
%%PageBoundingBox: 36 36 1018 296
%%PageOrientation: Portrait
0 0 1 beginpage
gsave
36 36 982 260 boxprim clip newpath
1 1 set_scale 0 rotate 40 40 translate
% testproject.Greeter.getName
gsave
1 setlinewidth
0 0 0 nodecolor
110 90 110.24 18 ellipse_path stroke
0 0 0 nodecolor
14 /Times-Roman set_font
33 86.3 moveto 154 (testproject.Greeter.getName) alignedtext
grestore
% java.lang.Thread.sleep
gsave
1 setlinewidth
0 0 0 nodecolor
110 18 90.49 18 ellipse_path stroke
0 0 0 nodecolor
14 /Times-Roman set_font
48 14.3 moveto 124 (java.lang.Thread.sleep) alignedtext
grestore
% testproject.Greeter.getName->java.lang.Thread.sleep
gsave
1 setlinewidth
0 0 0 edgecolor
newpath 110 71.7 moveto
110 63.98 110 54.71 110 46.11 curveto
stroke
0 0 0 edgecolor
newpath 113.5 46.1 moveto
110 36.1 lineto
106.5 46.1 lineto
closepath fill
1 setlinewidth
solid
0 0 0 edgecolor
newpath 113.5 46.1 moveto
110 36.1 lineto
106.5 46.1 lineto
closepath stroke
grestore
% testproject.Main.main
gsave
1 setlinewidth
0 0 0 nodecolor
590 234 89.06 18 ellipse_path stroke
0 0 0 nodecolor
14 /Times-Roman set_font
529.5 230.3 moveto 121 (testproject.Main.main) alignedtext
grestore
% testproject.Greeter.greet
gsave
1 setlinewidth
0 0 0 nodecolor
490 162 96.29 18 ellipse_path stroke
0 0 0 nodecolor
14 /Times-Roman set_font
424 158.3 moveto 132 (testproject.Greeter.greet) alignedtext
grestore
% testproject.Main.main->testproject.Greeter.greet
gsave
1 setlinewidth
0 0 0 edgecolor
newpath 566.55 216.59 moveto
553.24 207.26 536.37 195.46 521.87 185.31 curveto
stroke
0 0 0 edgecolor
newpath 523.84 182.42 moveto
513.65 179.55 lineto
519.83 188.15 lineto
closepath fill
1 setlinewidth
solid
0 0 0 edgecolor
newpath 523.84 182.42 moveto
513.65 179.55 lineto
519.83 188.15 lineto
closepath stroke
grestore
% java.lang.System.exit
gsave
1 setlinewidth
0 0 0 nodecolor
691 162 87.14 18 ellipse_path stroke
0 0 0 nodecolor
14 /Times-Roman set_font
632 158.3 moveto 118 (java.lang.System.exit) alignedtext
grestore
% testproject.Main.main->java.lang.System.exit
gsave
1 setlinewidth
0 0 0 edgecolor
newpath 613.68 216.59 moveto
627.13 207.26 644.16 195.46 658.81 185.31 curveto
stroke
0 0 0 edgecolor
newpath 660.89 188.12 moveto
667.12 179.55 lineto
656.91 182.37 lineto
closepath fill
1 setlinewidth
solid
0 0 0 edgecolor
newpath 660.89 188.12 moveto
667.12 179.55 lineto
656.91 182.37 lineto
closepath stroke
grestore
% testproject.Greeter.greet->testproject.Greeter.getName
gsave
1 setlinewidth
0 0 0 edgecolor
newpath 423.81 148.81 moveto
358.85 136.84 259.7 118.58 190.28 105.79 curveto
stroke
0 0 0 edgecolor
newpath 190.73 102.31 moveto
180.26 103.94 lineto
189.46 109.2 lineto
closepath fill
1 setlinewidth
solid
0 0 0 edgecolor
newpath 190.73 102.31 moveto
180.26 103.94 lineto
189.46 109.2 lineto
closepath stroke
grestore
% java.lang.StringBuilder.append
gsave
1 setlinewidth
0 0 0 nodecolor
359 90 120.33 18 ellipse_path stroke
0 0 0 nodecolor
14 /Times-Roman set_font
274 86.3 moveto 170 (java.lang.StringBuilder.append) alignedtext
grestore
% testproject.Greeter.greet->java.lang.StringBuilder.append
gsave
1 setlinewidth
0 0 0 edgecolor
newpath 459.62 144.76 moveto
441.61 135.14 418.57 122.83 399.08 112.42 curveto
stroke
0 0 0 edgecolor
newpath 400.6 109.26 moveto
390.13 107.63 lineto
397.3 115.43 lineto
closepath fill
1 setlinewidth
solid
0 0 0 edgecolor
newpath 400.6 109.26 moveto
390.13 107.63 lineto
397.3 115.43 lineto
closepath stroke
grestore
% java.lang.StringBuilder.toString
gsave
1 setlinewidth
0 0 0 nodecolor
622 90 124.21 18 ellipse_path stroke
0 0 0 nodecolor
14 /Times-Roman set_font
534.5 86.3 moveto 175 (java.lang.StringBuilder.toString) alignedtext
grestore
% testproject.Greeter.greet->java.lang.StringBuilder.toString
gsave
1 setlinewidth
0 0 0 edgecolor
newpath 520.62 144.76 moveto
538.76 135.14 561.97 122.83 581.61 112.42 curveto
stroke
0 0 0 edgecolor
newpath 583.44 115.41 moveto
590.63 107.63 lineto
580.16 109.23 lineto
closepath fill
1 setlinewidth
solid
0 0 0 edgecolor
newpath 583.44 115.41 moveto
590.63 107.63 lineto
580.16 109.23 lineto
closepath stroke
grestore
% java.io.PrintStream.println
gsave
1 setlinewidth
0 0 0 nodecolor
869 90 104.94 18 ellipse_path stroke
0 0 0 nodecolor
14 /Times-Roman set_font
796 86.3 moveto 146 (java.io.PrintStream.println) alignedtext
grestore
% testproject.Greeter.greet->java.io.PrintStream.println
gsave
1 setlinewidth
0 0 0 edgecolor
newpath 556.02 148.81 moveto
621.21 136.77 720.93 118.35 790.23 105.55 curveto
stroke
0 0 0 edgecolor
newpath 791.02 108.96 moveto
800.22 103.7 lineto
789.75 102.08 lineto
closepath fill
1 setlinewidth
solid
0 0 0 edgecolor
newpath 791.02 108.96 moveto
800.22 103.7 lineto
789.75 102.08 lineto
closepath stroke
grestore
endpage
showpage
grestore
%%PageTrailer
%%EndPage: 1
%%Trailer
end
restore
%%EOF
